<svg width="101" height="105" viewBox="0 0 101 105" fill="none" xmlns="http://www.w3.org/2000/svg">
<path d="M0.998809 97.0446L2.16618 96L7.32143 101.765L12.6882 96.1964L13.8164 97.2881L7.28225 104.074L0.998809 97.0446Z" fill="#C4E8EA"/>
<path d="M100.5 1.5C86.6663 7.16667 59.4996 21.9 61.4996 35.5C69.441 89.5015 0.541157 51.7709 7.99923 101.5" stroke="#C4E8EA" stroke-width="2"/>
</svg>
